# Blender v2.79 (sub 0) OBJ File: ''
# www.blender.org
mtllib Ship.mtl
o Cube2_Cube2_auv
v 0.500000 0.100000 -1.198765
v 1.243459 0.182216 -1.243694
v 0.404975 0.100000 -0.049752
v 0.352000 0.157157 -1.356549
v 0.352000 0.252301 -1.356549
v 0.500000 0.300000 -1.000000
v 0.212000 0.000000 -1.000000
v 0.192789 0.137101 1.296922
v 0.130310 0.079069 1.319309
v -0.130310 0.079069 1.319309
v -0.212000 -0.000000 -1.000000
v 0.105178 0.086757 -1.356549
v -0.192789 0.137101 1.296922
v -0.404975 0.100000 -0.049752
v -0.500000 0.100000 -1.198765
v -0.105178 0.086757 -1.356549
v -1.243459 0.182215 -1.243694
v -1.071862 0.382215 -1.070026
v -0.500000 0.300000 -1.000000
v -0.352000 0.157157 -1.356549
v 1.071862 0.382216 -1.070026
v 0.404975 0.304728 -0.049752
v 0.400000 0.600000 -1.000000
v 0.133333 0.800000 -1.000000
v 0.101576 0.704975 -0.369915
v 0.202949 0.504975 -0.049752
v 0.281600 0.415441 -1.356549
v 0.093867 0.553838 -1.356549
v -0.404975 0.304728 -0.049752
v -0.352000 0.252300 -1.356549
v 0.124400 0.159664 1.354554
v -0.124400 0.159663 1.354554
v 0.192789 0.258417 1.249427
v 0.192789 0.197759 1.273174
v -0.130282 0.316623 1.226640
v 0.130282 0.316623 1.226640
v -0.202949 0.504975 -0.049752
v -0.124400 0.275503 1.309204
v 0.124400 0.275503 1.309204
v -0.192789 0.197759 1.273174
v -0.192789 0.258417 1.249427
v -0.101576 0.704975 -0.369915
v -0.133333 0.800000 -1.000000
v -0.400000 0.600000 -1.000000
v -0.093867 0.553838 -1.356549
v -0.281600 0.415441 -1.356549
v 1.466134 0.283312 -0.577495
v -1.466134 0.283312 -0.577495
v -0.220947 0.381333 -1.400000
v -0.271500 0.273980 -1.400000
v -0.081308 0.448244 -1.400000
v 0.081308 0.448244 -1.400000
v 0.220947 0.381333 -1.400000
v 0.271500 0.273980 -1.400000
v 0.222595 0.178774 -1.400000
v 0.088133 0.109889 -1.400000
v -0.088133 0.109889 -1.400000
v -0.222595 0.178774 -1.400000
v -0.597998 0.202912 0.098904
v 0.597998 0.202913 0.098904
v -0.142146 0.343580 -1.841700
v -0.054295 0.384287 -1.841700
v -0.000000 0.277716 -0.841700
v -0.175702 0.277716 -1.841700
v 0.054295 0.384287 -1.841700
v 0.142146 0.343580 -1.841700
v 0.175702 0.277716 -1.841700
v 0.142146 0.211852 -1.841700
v 0.054295 0.171146 -1.841700
v -0.054295 0.171146 -1.841700
v -0.142146 0.211852 -1.841700
vt 0.187044 0.461503
vt 0.014002 0.461773
vt 0.187185 0.640633
vt 0.991727 0.442756
vt 0.902946 0.442228
vt 0.902907 0.390317
vt 0.992081 0.390244
vt 0.988365 0.839624
vt 0.988874 0.947583
vt 0.795404 0.947959
vt 0.555934 0.946765
vt 0.556712 0.838251
vt 0.556396 0.758258
vt 0.988060 0.757902
vt 0.991043 0.497903
vt 0.903735 0.497850
vt 0.991310 0.442520
vt 0.555755 0.642767
vt 0.795576 0.642913
vt 0.988045 0.642589
vt 0.990994 0.554457
vt 0.903031 0.554807
vt 0.991638 0.497807
vt 0.014862 0.204611
vt 0.192400 0.028008
vt 0.190766 0.095428
vt 0.014481 0.271686
vt 0.991444 0.063322
vt 0.903171 0.063031
vt 0.903304 0.008983
vt 0.991508 0.008937
vt 0.014143 0.987815
vt 0.013967 0.813726
vt 0.187647 0.987621
vt 0.716764 0.272539
vt 0.540277 0.095518
vt 0.540264 0.031017
vt 0.717291 0.208421
vt 0.540323 0.272298
vt 0.552947 0.599513
vt 0.553490 0.474754
vt 0.662962 0.475262
vt 0.662686 0.599637
vt 0.991182 0.337575
vt 0.902847 0.338114
vt 0.902874 0.286372
vt 0.991062 0.286446
vt 0.188486 0.272173
vt 0.991177 0.116102
vt 0.903065 0.116109
vt 0.991401 0.063435
vt 0.261832 0.584450
vt 0.300740 0.600922
vt 0.261408 0.600329
vt 0.232458 0.601122
vt 0.232556 0.584445
vt 0.555837 0.989126
vt 0.556230 0.967587
vt 0.794972 0.989151
vt 0.555991 0.967396
vt 0.231507 0.642119
vt 0.262175 0.642459
vt 0.262956 0.831189
vt 0.231828 0.831536
vt 0.231720 0.622433
vt 0.261270 0.622441
vt 0.299618 0.622222
vt 0.556119 0.621547
vt 0.196519 0.622442
vt 0.556342 0.606222
vt 0.795068 0.606150
vt 0.556146 0.621427
vt 0.197394 0.600909
vt 0.661972 0.286785
vt 0.663222 0.411566
vt 0.553543 0.411863
vt 0.553187 0.286513
vt 0.194471 0.831393
vt 0.194788 0.642463
vt 0.791920 0.475202
vt 0.792544 0.411540
vt 0.299291 0.831051
vt 0.299952 0.987421
vt 0.262149 0.987310
vt 0.991281 0.227444
vt 0.902786 0.227143
vt 0.902980 0.171541
vt 0.991335 0.171625
vt 0.991261 0.286477
vt 0.991457 0.227293
vt 0.369135 0.095216
vt 0.369044 0.010619
vt 0.358612 0.010003
vt 0.358900 0.094129
vt 0.991254 0.116051
vt 0.991188 0.171767
vt 0.882308 0.171459
vt 0.882302 0.116034
vt 0.882285 0.227062
vt 0.882373 0.286482
vt 0.991312 0.337506
vt 0.991640 0.389954
vt 0.882433 0.338091
vt 0.882684 0.390822
vt 0.882154 0.442079
vt 0.882558 0.497785
vt 0.882380 0.554466
vt 0.882372 0.063290
vt 0.882662 0.008693
vt 0.197180 0.611218
vt 0.197465 0.601100
vt 0.197095 0.622204
vt 0.186021 0.448395
vt 0.358279 0.272744
vt 0.231641 0.987202
vt 0.193895 0.986895
vt 0.100021 0.813622
vt 0.013722 0.640361
vt 0.187855 0.813056
vt 0.300785 0.610535
vt 0.300566 0.622121
vt 0.300536 0.600417
vt 0.540775 0.442802
vt 0.368493 0.272203
vt 0.299996 0.642792
vt 0.100415 0.640152
vt 0.187770 0.812915
vt 0.013798 0.640188
vt 0.812791 0.257214
vt 0.877962 0.257173
vt 0.878161 0.287462
vt 0.812733 0.287459
vt 0.751719 0.226541
vt 0.812822 0.226641
vt 0.877886 0.320991
vt 0.812769 0.321008
vt 0.751729 0.257340
vt 0.812874 0.008615
vt 0.878118 0.008740
vt 0.877877 0.037870
vt 0.812982 0.037872
vt 0.751180 0.287524
vt 0.878125 0.069827
vt 0.812984 0.070095
vt 0.750732 0.008588
vt 0.877775 0.099923
vt 0.812938 0.100151
vt 0.750137 0.038021
vt 0.877998 0.132180
vt 0.812734 0.131968
vt 0.751074 0.069928
vt 0.877740 0.162636
vt 0.812933 0.162869
vt 0.752047 0.099923
vt 0.877883 0.195046
vt 0.813044 0.194967
vt 0.752653 0.131931
vt 0.877783 0.226346
vt 0.751916 0.162562
vt 0.752073 0.195555
vn 0.4768 -0.6880 -0.5471
vn 0.5297 -0.7529 -0.3906
vn 0.5058 -0.8541 0.1208
vn 0.4931 -0.4170 -0.7635
vn 0.6768 0.2021 -0.7079
vn 0.5777 0.7168 -0.3905
vn 0.1346 -0.9827 -0.1272
vn 0.8046 -0.2821 0.5225
vn 0.2762 -0.7968 0.5374
vn -0.2762 -0.7968 0.5374
vn -0.1346 -0.9827 -0.1272
vn 0.1039 -0.8828 -0.4581
vn -0.8046 -0.2821 0.5225
vn -0.5058 -0.8541 0.1208
vn -0.4768 -0.6880 -0.5471
vn -0.1039 -0.8828 -0.4581
vn -0.5297 -0.7529 -0.3906
vn -0.1390 0.9789 -0.1495
vn -0.5777 0.7168 -0.3905
vn -0.4931 -0.4170 -0.7635
vn 0.1390 0.9789 -0.1495
vn 0.5862 0.7941 0.1605
vn 0.7746 0.6104 -0.1652
vn 0.3282 0.9195 -0.2163
vn 0.2313 0.9227 0.3084
vn 0.4805 0.8392 0.2546
vn 0.5612 0.4322 -0.7059
vn 0.2029 0.6087 -0.7670
vn -0.5862 0.7941 0.1605
vn -0.6768 0.2021 -0.7079
vn 0.3470 -0.0182 0.9377
vn -0.3470 -0.0182 0.9377
vn 0.7855 0.4871 0.3818
vn 0.9314 0.1085 0.3475
vn -0.3282 0.8940 0.3051
vn 0.3282 0.8940 0.3051
vn -0.4805 0.8392 0.2546
vn -0.3392 0.6358 0.6933
vn 0.3392 0.6358 0.6933
vn -0.9314 0.1085 0.3475
vn -0.7855 0.4871 0.3819
vn -0.2313 0.9227 0.3084
vn -0.3282 0.9195 -0.2163
vn -0.7746 0.6104 -0.1652
vn -0.2029 0.6087 -0.7670
vn -0.5612 0.4322 -0.7059
vn 0.7131 0.6998 -0.0423
vn -0.7131 0.6998 -0.0423
vn -0.5873 0.5572 -0.5871
vn -0.7724 0.0322 -0.6343
vn -0.1961 0.7716 -0.6052
vn 0.1961 0.7715 -0.6052
vn 0.5873 0.5572 -0.5871
vn 0.7724 0.0325 -0.6343
vn 0.5529 -0.5996 -0.5786
vn 0.1781 -0.9018 -0.3938
vn -0.1781 -0.9018 -0.3938
vn -0.5529 -0.5996 -0.5786
vn -0.8571 0.0049 0.5152
vn 0.8571 0.0049 0.5152
vn -0.0126 -0.0443 -0.9989
vn -0.0098 -0.0237 -0.9997
vn -0.0000 -0.0000 -1.0000
vn 0.0061 -0.0265 -0.9996
vn 0.0098 -0.0237 -0.9997
vn 0.0126 -0.0443 -0.9989
vn -0.0061 -0.0265 -0.9996
vn 0.0206 0.0253 -0.9995
vn 0.0382 0.0353 -0.9986
vn -0.0382 0.0353 -0.9986
vn -0.0206 0.0253 -0.9995
usemtl Cube2_auv
s 1
f 1/1/1 2/2/2 3/3/3
f 1/4/1 4/5/4 5/6/5 6/7/6
f 7/8/7 1/9/1 3/10/3 8/11/8 9/12/9
f 7/8/7 9/12/9 10/13/10 11/14/11
f 7/15/7 12/16/12 4/5/4 1/17/1
f 11/14/11 10/13/10 13/18/13 14/19/14 15/20/15
f 11/21/11 16/22/16 12/16/12 7/23/7
f 15/24/15 17/25/17 18/26/18 19/27/19
f 15/28/15 20/29/20 16/30/16 11/31/11
f 15/32/15 14/33/14 17/34/17
f 6/35/6 21/36/21 2/37/2 1/38/1
f 6/35/6 22/39/22 21/36/21
f 23/40/23 24/41/24 25/42/25 26/43/26
f 23/44/23 27/45/27 28/46/28 24/47/24
f 19/27/19 18/26/18 29/48/29
f 19/49/19 30/50/30 20/29/20 15/51/15
f 9/52/9 8/53/8 31/54/31
f 9/52/9 31/54/31 32/55/32 10/56/10
f 33/57/33 34/58/34 22/59/22
f 8/11/8 3/10/3 34/60/34
f 35/61/35 36/62/36 26/63/26 37/64/37
f 35/61/35 38/65/38 39/66/39 36/62/36
f 36/62/36 39/66/39 33/67/33
f 13/18/13 40/68/40 14/19/14
f 41/69/41 38/65/38 35/61/35
f 41/70/41 29/71/29 40/72/40
f 32/55/32 13/73/13 10/56/10
f 31/54/31 39/66/39 38/65/38 32/55/32
f 37/74/37 42/75/42 43/76/43 44/77/44
f 37/64/37 29/78/29 41/79/41 35/61/35
f 26/80/26 25/42/25 42/75/42 37/81/37
f 26/63/26 22/82/22 6/83/6 23/84/23
f 25/42/25 24/41/24 43/76/43 42/75/42
f 43/85/43 45/86/45 46/87/46 44/88/44
f 24/89/24 28/46/28 45/86/45 43/90/43
f 21/36/21 47/91/47 2/92/2
f 17/93/17 48/94/48 18/26/18
f 46/87/46 30/50/30 19/95/19 44/96/44
f 46/87/46 49/97/49 50/98/50 30/50/30
f 45/86/45 51/99/51 49/97/49 46/87/46
f 28/46/28 52/100/52 51/99/51 45/86/45
f 27/45/27 23/101/23 6/102/6 5/6/5
f 27/45/27 53/103/53 52/100/52 28/46/28
f 5/6/5 54/104/54 53/103/53 27/45/27
f 4/5/4 55/105/55 54/104/54 5/6/5
f 12/16/12 56/106/56 55/105/55 4/5/4
f 16/22/16 57/107/57 56/106/56 12/16/12
f 20/29/20 58/108/58 57/109/57 16/30/16
f 30/50/30 50/98/50 58/108/58 20/29/20
f 40/110/40 13/111/13 32/55/32 38/65/38 41/112/41
f 40/113/40 29/48/29 59/114/59
f 29/78/29 37/64/37 44/115/44 19/116/19
f 29/48/29 18/26/18 59/114/59
f 59/117/59 17/34/17 14/33/14
f 59/117/59 14/33/14 40/118/40
f 48/119/48 17/34/17 59/117/59
f 48/94/48 59/114/59 18/26/18
f 34/120/34 33/121/33 39/66/39 31/54/31 8/122/8
f 34/123/34 60/124/60 22/39/22
f 22/82/22 26/63/26 36/62/36 33/125/33
f 3/3/3 2/2/2 60/126/60
f 3/3/3 60/126/60 34/127/34
f 47/91/47 21/36/21 60/124/60
f 47/128/47 60/126/60 2/2/2
f 60/124/60 21/36/21 22/39/22
f 61/129/61 49/130/49 51/131/51 62/132/62
f 61/129/61 63/133/63 64/134/64
f 62/132/62 51/131/51 52/135/52 65/136/65
f 62/132/62 63/137/63 61/129/61
f 65/138/65 52/139/52 53/140/53 66/141/66
f 65/136/65 63/142/63 62/132/62
f 66/141/66 53/140/53 54/143/54 67/144/67
f 66/141/66 63/145/63 65/138/65
f 67/144/67 54/143/54 55/146/55 68/147/68
f 67/144/67 63/148/63 66/141/66
f 68/147/68 55/146/55 56/149/56 69/150/69
f 68/147/68 63/151/63 67/144/67
f 69/150/69 56/149/56 57/152/57 70/153/70
f 69/150/69 63/154/63 68/147/68
f 70/153/70 57/152/57 58/155/58 71/156/71
f 70/153/70 63/157/63 69/150/69
f 71/156/71 58/155/58 50/158/50 64/134/64
f 71/156/71 63/159/63 70/153/70
f 64/134/64 50/158/50 49/130/49 61/129/61
f 64/134/64 63/160/63 71/156/71
